simulation/qsim/ContadorMod4Mealyano.msim.vcd
$comment
	File created using the following command:
		vcd file ContadorMod4Mealyano.msim.vcd -direction
$end
$date
	Thu Sep 21 22:21:07 2023
$end
$version
	ModelSim Version 2020.1
$end
$timescale
	1ps
$end

$scope module contadormod4mealyano_vhd_vec_tst $end
$var wire 1 ! clock_50mhz $end
$var wire 1 " q [1] $end
$var wire 1 # q [0] $end
$var wire 1 $ s_bcd7s_infos [6] $end
$var wire 1 % s_bcd7s_infos [5] $end
$var wire 1 & s_bcd7s_infos [4] $end
$var wire 1 ' s_bcd7s_infos [3] $end
$var wire 1 ( s_bcd7s_infos [2] $end
$var wire 1 ) s_bcd7s_infos [1] $end
$var wire 1 * s_bcd7s_infos [0] $end
$var wire 1 + s_bcd7s_num [6] $end
$var wire 1 , s_bcd7s_num [5] $end
$var wire 1 - s_bcd7s_num [4] $end
$var wire 1 . s_bcd7s_num [3] $end
$var wire 1 / s_bcd7s_num [2] $end
$var wire 1 0 s_bcd7s_num [1] $end
$var wire 1 1 s_bcd7s_num [0] $end
$var wire 1 2 sentido $end

$scope module i1 $end
$var wire 1 3 gnd $end
$var wire 1 4 vcc $end
$var wire 1 5 unknown $end
$var wire 1 6 devoe $end
$var wire 1 7 devclrn $end
$var wire 1 8 devpor $end
$var wire 1 9 ww_devoe $end
$var wire 1 : ww_devclrn $end
$var wire 1 ; ww_devpor $end
$var wire 1 < ww_sentido $end
$var wire 1 = ww_clock_50mhz $end
$var wire 1 > ww_s_bcd7s_num [6] $end
$var wire 1 ? ww_s_bcd7s_num [5] $end
$var wire 1 @ ww_s_bcd7s_num [4] $end
$var wire 1 A ww_s_bcd7s_num [3] $end
$var wire 1 B ww_s_bcd7s_num [2] $end
$var wire 1 C ww_s_bcd7s_num [1] $end
$var wire 1 D ww_s_bcd7s_num [0] $end
$var wire 1 E ww_s_bcd7s_infos [6] $end
$var wire 1 F ww_s_bcd7s_infos [5] $end
$var wire 1 G ww_s_bcd7s_infos [4] $end
$var wire 1 H ww_s_bcd7s_infos [3] $end
$var wire 1 I ww_s_bcd7s_infos [2] $end
$var wire 1 J ww_s_bcd7s_infos [1] $end
$var wire 1 K ww_s_bcd7s_infos [0] $end
$var wire 1 L ww_q [1] $end
$var wire 1 M ww_q [0] $end
$var wire 1 N \clock_50mhz~inputclkctrl_INCLK_bus\ [3] $end
$var wire 1 O \clock_50mhz~inputclkctrl_INCLK_bus\ [2] $end
$var wire 1 P \clock_50mhz~inputclkctrl_INCLK_bus\ [1] $end
$var wire 1 Q \clock_50mhz~inputclkctrl_INCLK_bus\ [0] $end
$var wire 1 R \s_bcd7s_num[0]~output_o\ $end
$var wire 1 S \s_bcd7s_num[1]~output_o\ $end
$var wire 1 T \s_bcd7s_num[2]~output_o\ $end
$var wire 1 U \s_bcd7s_num[3]~output_o\ $end
$var wire 1 V \s_bcd7s_num[4]~output_o\ $end
$var wire 1 W \s_bcd7s_num[5]~output_o\ $end
$var wire 1 X \s_bcd7s_num[6]~output_o\ $end
$var wire 1 Y \s_bcd7s_infos[0]~output_o\ $end
$var wire 1 Z \s_bcd7s_infos[1]~output_o\ $end
$var wire 1 [ \s_bcd7s_infos[2]~output_o\ $end
$var wire 1 \ \s_bcd7s_infos[3]~output_o\ $end
$var wire 1 ] \s_bcd7s_infos[4]~output_o\ $end
$var wire 1 ^ \s_bcd7s_infos[5]~output_o\ $end
$var wire 1 _ \s_bcd7s_infos[6]~output_o\ $end
$var wire 1 ` \q[0]~output_o\ $end
$var wire 1 a \q[1]~output_o\ $end
$var wire 1 b \clock_50mhz~input_o\ $end
$var wire 1 c \clock_50mhz~inputclkctrl_outclk\ $end
$var wire 1 d \sentido~input_o\ $end
$var wire 1 e \Selector3~0_combout\ $end
$var wire 1 f \estado.S3~q\ $end
$var wire 1 g \Selector2~0_combout\ $end
$var wire 1 h \estado.S2~q\ $end
$var wire 1 i \Selector1~0_combout\ $end
$var wire 1 j \estado.S1~q\ $end
$var wire 1 k \Selector0~0_combout\ $end
$var wire 1 l \estado.S0~q\ $end
$var wire 1 m \Selector4~0_combout\ $end
$var wire 1 n \contagem~0_combout\ $end
$var wire 1 o \Mux3~0_combout\ $end
$var wire 1 p \Mux0~0_combout\ $end
$var wire 1 q \Mux0~1_combout\ $end
$var wire 1 r contagem [1] $end
$var wire 1 s contagem [0] $end
$var wire 1 t \ALT_INV_sentido~input_o\ $end
$var wire 1 u ALT_INV_contagem [1] $end
$upscope $end
$upscope $end
$enddefinitions $end
#0
$dumpvars
0!
02
03
14
x5
16
17
18
19
1:
1;
0<
0=
1R
0S
0T
0U
0V
0W
0X
1Y
0Z
0[
0\
1]
1^
0_
0`
0a
0b
0c
0d
0e
0f
0g
0h
1i
0j
1k
0l
0m
1n
0o
0p
0q
1t
0>
0?
0@
0A
0B
0C
1D
0E
1F
1G
0H
0I
0J
1K
0L
0M
0r
0s
1u
1N
1O
1P
0Q
0"
0#
0$
1%
1&
0'
0(
0)
1*
0+
0,
0-
0.
0/
00
11
$end
#5000
1!
1=
1b
1Q
1c
1j
1l
1s
1o
1p
0i
1m
0n
1g
1T
1`
1B
1M
1U
1X
1S
1/
1#
1A
1>
1C
10
1.
1+
#10000
0!
0=
0b
0Q
0c
#15000
1!
1=
1b
1Q
1c
1h
0j
1r
0s
0u
0p
1q
0g
1e
1n
0T
0`
1a
0R
0B
0M
1L
1V
0U
0X
0D
0/
0#
1"
1@
0A
0>
01
0.
1-
0+
#20000
0!
0=
0b
0Q
0c
#25000
1!
1=
1b
1Q
1c
1f
0h
1s
0q
0e
0n
0k
0m
1T
1`
1B
1M
0V
1/
1#
0@
0-
#30000
0!
0=
0b
0Q
0c
#35000
1!
1=
1b
1Q
1c
0f
0l
0r
0s
1u
0o
1i
1n
1k
0T
0`
0a
1R
0B
0M
0L
0S
1D
0/
0#
0"
0C
11
00
#40000
0!
0=
0b
0Q
0c
#45000
1!
1=
1b
1Q
1c
1j
1l
1s
1o
1p
0i
1m
0n
1g
1T
1`
1B
1M
1U
1X
1S
1/
1#
1A
1>
1C
10
1.
1+
#50000
0!
0=
0b
0Q
0c
#55000
1!
1=
1b
1Q
1c
1h
0j
1r
0s
0u
0p
1q
0g
1e
1n
0T
0`
1a
0R
0B
0M
1L
1V
0U
0X
0D
0/
0#
1"
1@
0A
0>
01
0.
1-
0+
#60000
0!
0=
0b
0Q
0c
#65000
1!
1=
1b
1Q
1c
1f
0h
1s
0q
0e
0n
0k
0m
1T
1`
1B
1M
0V
1/
1#
0@
0-
#70000
0!
0=
0b
0Q
0c
#75000
1!
1=
1b
1Q
1c
0f
0l
0r
0s
1u
0o
1i
1n
1k
0T
0`
0a
1R
0B
0M
0L
0S
1D
0/
0#
0"
0C
11
00
#80000
0!
0=
0b
0Q
0c
#85000
1!
1=
1b
1Q
1c
1j
1l
1s
1o
1p
0i
1m
0n
1g
1T
1`
1B
1M
1U
1X
1S
1/
1#
1A
1>
1C
10
1.
1+
#90000
0!
0=
0b
0Q
0c
#95000
1!
1=
1b
1Q
1c
1h
0j
1r
0s
0u
0p
1q
0g
1e
1n
0T
0`
1a
0R
0B
0M
1L
1V
0U
0X
0D
0/
0#
1"
1@
0A
0>
01
0.
1-
0+
#100000
0!
0=
0b
0Q
0c
#105000
1!
1=
1b
1Q
1c
1f
0h
1s
0q
0e
0n
0k
0m
1T
1`
1B
1M
0V
1/
1#
0@
0-
#110000
0!
0=
0b
0Q
0c
#115000
1!
1=
1b
1Q
1c
0f
0l
0r
0s
1u
0o
1i
1n
1k
0T
0`
0a
1R
0B
0M
0L
0S
1D
0/
0#
0"
0C
11
00
#120000
0!
0=
0b
0Q
0c
#125000
1!
1=
1b
1Q
1c
1j
1l
1s
1o
1p
0i
1m
0n
1g
1T
1`
1B
1M
1U
1X
1S
1/
1#
1A
1>
1C
10
1.
1+
#130000
0!
0=
0b
0Q
0c
#135000
1!
1=
1b
1Q
1c
1h
0j
1r
0s
0u
0p
1q
0g
1e
1n
0T
0`
1a
0R
0B
0M
1L
1V
0U
0X
0D
0/
0#
1"
1@
0A
0>
01
0.
1-
0+
#140000
0!
0=
0b
0Q
0c
#145000
1!
1=
1b
1Q
1c
1f
0h
1s
0q
0e
0n
0k
0m
1T
1`
1B
1M
0V
1/
1#
0@
0-
#150000
0!
0=
0b
0Q
0c
#155000
1!
1=
1b
1Q
1c
0f
0l
0r
0s
1u
0o
1i
1n
1k
0T
0`
0a
1R
0B
0M
0L
0S
1D
0/
0#
0"
0C
11
00
#160000
0!
0=
0b
0Q
0c
#165000
1!
1=
1b
1Q
1c
1j
1l
1s
1o
1p
0i
1m
0n
1g
1T
1`
1B
1M
1U
1X
1S
1/
1#
1A
1>
1C
10
1.
1+
#170000
0!
0=
0b
0Q
0c
#175000
1!
1=
1b
1Q
1c
1h
0j
1r
0s
0u
0p
1q
0g
1e
1n
0T
0`
1a
0R
0B
0M
1L
1V
0U
0X
0D
0/
0#
1"
1@
0A
0>
01
0.
1-
0+
#180000
0!
0=
0b
0Q
0c
#185000
1!
1=
1b
1Q
1c
1f
0h
1s
0q
0e
0n
0k
0m
1T
1`
1B
1M
0V
1/
1#
0@
0-
#190000
0!
0=
0b
0Q
0c
#195000
1!
1=
1b
1Q
1c
0f
0l
0r
0s
1u
0o
1i
1n
1k
0T
0`
0a
1R
0B
0M
0L
0S
1D
0/
0#
0"
0C
11
00
#200000
0!
0=
0b
0Q
0c
#205000
1!
1=
1b
1Q
1c
1j
1l
1s
1o
1p
0i
1m
0n
1g
1T
1`
1B
1M
1U
1X
1S
1/
1#
1A
1>
1C
10
1.
1+
#210000
0!
0=
0b
0Q
0c
#215000
1!
1=
1b
1Q
1c
1h
0j
1r
0s
0u
0p
1q
0g
1e
1n
0T
0`
1a
0R
0B
0M
1L
1V
0U
0X
0D
0/
0#
1"
1@
0A
0>
01
0.
1-
0+
#220000
0!
0=
0b
0Q
0c
#225000
1!
1=
1b
1Q
1c
1f
0h
1s
0q
0e
0n
0k
0m
1T
1`
1B
1M
0V
1/
1#
0@
0-
#230000
0!
0=
0b
0Q
0c
#235000
1!
1=
1b
1Q
1c
0f
0l
0r
0s
1u
0o
1i
1n
1k
0T
0`
0a
1R
0B
0M
0L
0S
1D
0/
0#
0"
0C
11
00
#240000
0!
0=
0b
0Q
0c
#245000
1!
1=
1b
1Q
1c
1j
1l
1s
1o
1p
0i
1m
0n
1g
1T
1`
1B
1M
1U
1X
1S
1/
1#
1A
1>
1C
10
1.
1+
#250000
0!
0=
0b
0Q
0c
#255000
1!
1=
1b
1Q
1c
1h
0j
1r
0s
0u
0p
1q
0g
1e
1n
0T
0`
1a
0R
0B
0M
1L
1V
0U
0X
0D
0/
0#
1"
1@
0A
0>
01
0.
1-
0+
#260000
0!
0=
0b
0Q
0c
#265000
1!
1=
1b
1Q
1c
1f
0h
1s
0q
0e
0n
0k
0m
1T
1`
1B
1M
0V
1/
1#
0@
0-
#270000
0!
0=
0b
0Q
0c
#275000
1!
1=
1b
1Q
1c
0f
0l
0r
0s
1u
0o
1i
1n
1k
0T
0`
0a
1R
0B
0M
0L
0S
1D
0/
0#
0"
0C
11
00
#280000
0!
0=
0b
0Q
0c
#285000
1!
1=
1b
1Q
1c
1j
1l
1s
1o
1p
0i
1m
0n
1g
1T
1`
1B
1M
1U
1X
1S
1/
1#
1A
1>
1C
10
1.
1+
#290000
0!
0=
0b
0Q
0c
#295000
1!
1=
1b
1Q
1c
1h
0j
1r
0s
0u
0p
1q
0g
1e
1n
0T
0`
1a
0R
0B
0M
1L
1V
0U
0X
0D
0/
0#
1"
1@
0A
0>
01
0.
1-
0+
#300000
0!
0=
0b
0Q
0c
#305000
1!
1=
1b
1Q
1c
1f
0h
1s
0q
0e
0n
0k
0m
1T
1`
1B
1M
0V
1/
1#
0@
0-
#310000
0!
0=
0b
0Q
0c
#315000
1!
1=
1b
1Q
1c
0f
0l
0r
0s
1u
0o
1i
1n
1k
0T
0`
0a
1R
0B
0M
0L
0S
1D
0/
0#
0"
0C
11
00
#320000
0!
0=
0b
0Q
0c
#325000
1!
1=
1b
1Q
1c
1j
1l
1s
1o
1p
0i
1m
0n
1g
1T
1`
1B
1M
1U
1X
1S
1/
1#
1A
1>
1C
10
1.
1+
#330000
0!
0=
0b
0Q
0c
#335000
1!
1=
1b
1Q
1c
1h
0j
1r
0s
0u
0p
1q
0g
1e
1n
0T
0`
1a
0R
0B
0M
1L
1V
0U
0X
0D
0/
0#
1"
1@
0A
0>
01
0.
1-
0+
#340000
0!
0=
0b
0Q
0c
#345000
1!
1=
1b
1Q
1c
1f
0h
1s
0q
0e
0n
0k
0m
1T
1`
1B
1M
0V
1/
1#
0@
0-
#350000
0!
0=
0b
0Q
0c
#355000
1!
1=
1b
1Q
1c
0f
0l
0r
0s
1u
0o
1i
1n
1k
0T
0`
0a
1R
0B
0M
0L
0S
1D
0/
0#
0"
0C
11
00
#360000
0!
0=
0b
0Q
0c
#365000
1!
1=
1b
1Q
1c
1j
1l
1s
1o
1p
0i
1m
0n
1g
1T
1`
1B
1M
1U
1X
1S
1/
1#
1A
1>
1C
10
1.
1+
#370000
0!
0=
0b
0Q
0c
#375000
1!
1=
1b
1Q
1c
1h
0j
1r
0s
0u
0p
1q
0g
1e
1n
0T
0`
1a
0R
0B
0M
1L
1V
0U
0X
0D
0/
0#
1"
1@
0A
0>
01
0.
1-
0+
#380000
0!
0=
0b
0Q
0c
#385000
1!
1=
1b
1Q
1c
1f
0h
1s
0q
0e
0n
0k
0m
1T
1`
1B
1M
0V
1/
1#
0@
0-
#390000
0!
0=
0b
0Q
0c
#395000
1!
1=
1b
1Q
1c
0f
0l
0r
0s
1u
0o
1i
1n
1k
0T
0`
0a
1R
0B
0M
0L
0S
1D
0/
0#
0"
0C
11
00
#400000
0!
0=
0b
0Q
0c
#405000
1!
1=
1b
1Q
1c
1j
1l
1s
1o
1p
0i
1m
0n
1g
1T
1`
1B
1M
1U
1X
1S
1/
1#
1A
1>
1C
10
1.
1+
#410000
0!
0=
0b
0Q
0c
#415000
1!
1=
1b
1Q
1c
1h
0j
1r
0s
0u
0p
1q
0g
1e
1n
0T
0`
1a
0R
0B
0M
1L
1V
0U
0X
0D
0/
0#
1"
1@
0A
0>
01
0.
1-
0+
#420000
0!
0=
0b
0Q
0c
#425000
1!
1=
1b
1Q
1c
1f
0h
1s
0q
0e
0n
0k
0m
1T
1`
1B
1M
0V
1/
1#
0@
0-
#430000
0!
0=
0b
0Q
0c
#435000
1!
1=
1b
1Q
1c
0f
0l
0r
0s
1u
0o
1i
1n
1k
0T
0`
0a
1R
0B
0M
0L
0S
1D
0/
0#
0"
0C
11
00
#440000
0!
0=
0b
0Q
0c
#445000
1!
1=
1b
1Q
1c
1j
1l
1s
1o
1p
0i
1m
0n
1g
1T
1`
1B
1M
1U
1X
1S
1/
1#
1A
1>
1C
10
1.
1+
#450000
0!
0=
0b
0Q
0c
#455000
1!
1=
1b
1Q
1c
1h
0j
1r
0s
0u
0p
1q
0g
1e
1n
0T
0`
1a
0R
0B
0M
1L
1V
0U
0X
0D
0/
0#
1"
1@
0A
0>
01
0.
1-
0+
#460000
0!
0=
0b
0Q
0c
#465000
1!
1=
1b
1Q
1c
1f
0h
1s
0q
0e
0n
0k
0m
1T
1`
1B
1M
0V
1/
1#
0@
0-
#470000
0!
0=
0b
0Q
0c
#475000
1!
1=
1b
1Q
1c
0f
0l
0r
0s
1u
0o
1i
1n
1k
0T
0`
0a
1R
0B
0M
0L
0S
1D
0/
0#
0"
0C
11
00
#480000
0!
0=
0b
0Q
0c
#485000
1!
1=
1b
1Q
1c
1j
1l
1s
1o
1p
0i
1m
0n
1g
1T
1`
1B
1M
1U
1X
1S
1/
1#
1A
1>
1C
10
1.
1+
#490000
0!
0=
0b
0Q
0c
#495000
1!
1=
1b
1Q
1c
1h
0j
1r
0s
0u
0p
1q
0g
1e
1n
0T
0`
1a
0R
0B
0M
1L
1V
0U
0X
0D
0/
0#
1"
1@
0A
0>
01
0.
1-
0+
#500000
0!
0=
0b
0Q
0c
#505000
1!
1=
1b
1Q
1c
1f
0h
1s
0q
0e
0n
0k
0m
1T
1`
1B
1M
0V
1/
1#
0@
0-
#510000
0!
0=
0b
0Q
0c
#515000
1!
1=
1b
1Q
1c
0f
0l
0r
0s
1u
0o
1i
1n
1k
0T
0`
0a
1R
0B
0M
0L
0S
1D
0/
0#
0"
0C
11
00
#520000
0!
0=
0b
0Q
0c
#525000
1!
1=
1b
1Q
1c
1j
1l
1s
1o
1p
0i
1m
0n
1g
1T
1`
1B
1M
1U
1X
1S
1/
1#
1A
1>
1C
10
1.
1+
#530000
0!
0=
0b
0Q
0c
#535000
1!
1=
1b
1Q
1c
1h
0j
1r
0s
0u
0p
1q
0g
1e
1n
0T
0`
1a
0R
0B
0M
1L
1V
0U
0X
0D
0/
0#
1"
1@
0A
0>
01
0.
1-
0+
#540000
0!
0=
0b
0Q
0c
#545000
1!
1=
1b
1Q
1c
1f
0h
1s
0q
0e
0n
0k
0m
1T
1`
1B
1M
0V
1/
1#
0@
0-
#550000
0!
0=
0b
0Q
0c
#555000
1!
1=
1b
1Q
1c
0f
0l
0r
0s
1u
0o
1i
1n
1k
0T
0`
0a
1R
0B
0M
0L
0S
1D
0/
0#
0"
0C
11
00
#560000
0!
0=
0b
0Q
0c
#565000
1!
1=
1b
1Q
1c
1j
1l
1s
1o
1p
0i
1m
0n
1g
1T
1`
1B
1M
1U
1X
1S
1/
1#
1A
1>
1C
10
1.
1+
#570000
0!
0=
0b
0Q
0c
#575000
1!
1=
1b
1Q
1c
1h
0j
1r
0s
0u
0p
1q
0g
1e
1n
0T
0`
1a
0R
0B
0M
1L
1V
0U
0X
0D
0/
0#
1"
1@
0A
0>
01
0.
1-
0+
#580000
0!
0=
0b
0Q
0c
#585000
1!
1=
1b
1Q
1c
1f
0h
1s
0q
0e
0n
0k
0m
1T
1`
1B
1M
0V
1/
1#
0@
0-
#590000
0!
0=
0b
0Q
0c
#595000
1!
1=
1b
1Q
1c
0f
0l
0r
0s
1u
0o
1i
1n
1k
0T
0`
0a
1R
0B
0M
0L
0S
1D
0/
0#
0"
0C
11
00
#600000
0!
0=
0b
0Q
0c
#605000
1!
1=
1b
1Q
1c
1j
1l
1s
1o
1p
0i
1m
0n
1g
1T
1`
1B
1M
1U
1X
1S
1/
1#
1A
1>
1C
10
1.
1+
#610000
0!
0=
0b
0Q
0c
#615000
1!
1=
1b
1Q
1c
1h
0j
1r
0s
0u
0p
1q
0g
1e
1n
0T
0`
1a
0R
0B
0M
1L
1V
0U
0X
0D
0/
0#
1"
1@
0A
0>
01
0.
1-
0+
#620000
0!
0=
0b
0Q
0c
#625000
1!
1=
1b
1Q
1c
1f
0h
1s
0q
0e
0n
0k
0m
1T
1`
1B
1M
0V
1/
1#
0@
0-
#630000
0!
0=
0b
0Q
0c
#635000
1!
1=
1b
1Q
1c
0f
0l
0r
0s
1u
0o
1i
1n
1k
0T
0`
0a
1R
0B
0M
0L
0S
1D
0/
0#
0"
0C
11
00
#640000
0!
0=
0b
0Q
0c
#645000
1!
1=
1b
1Q
1c
1j
1l
1s
1o
1p
0i
1m
0n
1g
1T
1`
1B
1M
1U
1X
1S
1/
1#
1A
1>
1C
10
1.
1+
#650000
0!
0=
0b
0Q
0c
#655000
1!
1=
1b
1Q
1c
1h
0j
1r
0s
0u
0p
1q
0g
1e
1n
0T
0`
1a
0R
0B
0M
1L
1V
0U
0X
0D
0/
0#
1"
1@
0A
0>
01
0.
1-
0+
#660000
0!
0=
0b
0Q
0c
#665000
1!
1=
1b
1Q
1c
1f
0h
1s
0q
0e
0n
0k
0m
1T
1`
1B
1M
0V
1/
1#
0@
0-
#670000
0!
0=
0b
0Q
0c
#675000
1!
1=
1b
1Q
1c
0f
0l
0r
0s
1u
0o
1i
1n
1k
0T
0`
0a
1R
0B
0M
0L
0S
1D
0/
0#
0"
0C
11
00
#680000
0!
0=
0b
0Q
0c
#685000
1!
1=
1b
1Q
1c
1j
1l
1s
1o
1p
0i
1m
0n
1g
1T
1`
1B
1M
1U
1X
1S
1/
1#
1A
1>
1C
10
1.
1+
#690000
0!
0=
0b
0Q
0c
#695000
1!
1=
1b
1Q
1c
1h
0j
1r
0s
0u
0p
1q
0g
1e
1n
0T
0`
1a
0R
0B
0M
1L
1V
0U
0X
0D
0/
0#
1"
1@
0A
0>
01
0.
1-
0+
#700000
0!
0=
0b
0Q
0c
#705000
1!
1=
1b
1Q
1c
1f
0h
1s
0q
0e
0n
0k
0m
1T
1`
1B
1M
0V
1/
1#
0@
0-
#710000
0!
0=
0b
0Q
0c
#715000
1!
1=
1b
1Q
1c
0f
0l
0r
0s
1u
0o
1i
1n
1k
0T
0`
0a
1R
0B
0M
0L
0S
1D
0/
0#
0"
0C
11
00
#720000
0!
0=
0b
0Q
0c
#725000
1!
1=
1b
1Q
1c
1j
1l
1s
1o
1p
0i
1m
0n
1g
1T
1`
1B
1M
1U
1X
1S
1/
1#
1A
1>
1C
10
1.
1+
#730000
0!
0=
0b
0Q
0c
#735000
1!
1=
1b
1Q
1c
1h
0j
1r
0s
0u
0p
1q
0g
1e
1n
0T
0`
1a
0R
0B
0M
1L
1V
0U
0X
0D
0/
0#
1"
1@
0A
0>
01
0.
1-
0+
#740000
0!
0=
0b
0Q
0c
#745000
1!
1=
1b
1Q
1c
1f
0h
1s
0q
0e
0n
0k
0m
1T
1`
1B
1M
0V
1/
1#
0@
0-
#750000
0!
0=
0b
0Q
0c
#755000
1!
1=
1b
1Q
1c
0f
0l
0r
0s
1u
0o
1i
1n
1k
0T
0`
0a
1R
0B
0M
0L
0S
1D
0/
0#
0"
0C
11
00
#760000
0!
0=
0b
0Q
0c
#765000
1!
1=
1b
1Q
1c
1j
1l
1s
1o
1p
0i
1m
0n
1g
1T
1`
1B
1M
1U
1X
1S
1/
1#
1A
1>
1C
10
1.
1+
#770000
0!
0=
0b
0Q
0c
#775000
1!
1=
1b
1Q
1c
1h
0j
1r
0s
0u
0p
1q
0g
1e
1n
0T
0`
1a
0R
0B
0M
1L
1V
0U
0X
0D
0/
0#
1"
1@
0A
0>
01
0.
1-
0+
#780000
0!
0=
0b
0Q
0c
#785000
1!
1=
1b
1Q
1c
1f
0h
1s
0q
0e
0n
0k
0m
1T
1`
1B
1M
0V
1/
1#
0@
0-
#790000
0!
0=
0b
0Q
0c
#795000
1!
1=
1b
1Q
1c
0f
0l
0r
0s
1u
0o
1i
1n
1k
0T
0`
0a
1R
0B
0M
0L
0S
1D
0/
0#
0"
0C
11
00
#800000
0!
0=
0b
0Q
0c
#805000
1!
1=
1b
1Q
1c
1j
1l
1s
1o
1p
0i
1m
0n
1g
1T
1`
1B
1M
1U
1X
1S
1/
1#
1A
1>
1C
10
1.
1+
#810000
0!
0=
0b
0Q
0c
#815000
1!
1=
1b
1Q
1c
1h
0j
1r
0s
0u
0p
1q
0g
1e
1n
0T
0`
1a
0R
0B
0M
1L
1V
0U
0X
0D
0/
0#
1"
1@
0A
0>
01
0.
1-
0+
#820000
0!
0=
0b
0Q
0c
#825000
1!
1=
1b
1Q
1c
1f
0h
1s
0q
0e
0n
0k
0m
1T
1`
1B
1M
0V
1/
1#
0@
0-
#830000
0!
0=
0b
0Q
0c
#835000
1!
1=
1b
1Q
1c
0f
0l
0r
0s
1u
0o
1i
1n
1k
0T
0`
0a
1R
0B
0M
0L
0S
1D
0/
0#
0"
0C
11
00
#840000
0!
0=
0b
0Q
0c
#845000
1!
1=
1b
1Q
1c
1j
1l
1s
1o
1p
0i
1m
0n
1g
1T
1`
1B
1M
1U
1X
1S
1/
1#
1A
1>
1C
10
1.
1+
#850000
0!
0=
0b
0Q
0c
#855000
1!
1=
1b
1Q
1c
1h
0j
1r
0s
0u
0p
1q
0g
1e
1n
0T
0`
1a
0R
0B
0M
1L
1V
0U
0X
0D
0/
0#
1"
1@
0A
0>
01
0.
1-
0+
#860000
0!
0=
0b
0Q
0c
#865000
1!
1=
1b
1Q
1c
1f
0h
1s
0q
0e
0n
0k
0m
1T
1`
1B
1M
0V
1/
1#
0@
0-
#870000
0!
0=
0b
0Q
0c
#875000
1!
1=
1b
1Q
1c
0f
0l
0r
0s
1u
0o
1i
1n
1k
0T
0`
0a
1R
0B
0M
0L
0S
1D
0/
0#
0"
0C
11
00
#880000
0!
0=
0b
0Q
0c
#885000
1!
1=
1b
1Q
1c
1j
1l
1s
1o
1p
0i
1m
0n
1g
1T
1`
1B
1M
1U
1X
1S
1/
1#
1A
1>
1C
10
1.
1+
#890000
0!
0=
0b
0Q
0c
#895000
1!
1=
1b
1Q
1c
1h
0j
1r
0s
0u
0p
1q
0g
1e
1n
0T
0`
1a
0R
0B
0M
1L
1V
0U
0X
0D
0/
0#
1"
1@
0A
0>
01
0.
1-
0+
#900000
0!
0=
0b
0Q
0c
#905000
1!
1=
1b
1Q
1c
1f
0h
1s
0q
0e
0n
0k
0m
1T
1`
1B
1M
0V
1/
1#
0@
0-
#910000
0!
0=
0b
0Q
0c
#915000
1!
1=
1b
1Q
1c
0f
0l
0r
0s
1u
0o
1i
1n
1k
0T
0`
0a
1R
0B
0M
0L
0S
1D
0/
0#
0"
0C
11
00
#920000
0!
0=
0b
0Q
0c
#925000
1!
1=
1b
1Q
1c
1j
1l
1s
1o
1p
0i
1m
0n
1g
1T
1`
1B
1M
1U
1X
1S
1/
1#
1A
1>
1C
10
1.
1+
#930000
0!
0=
0b
0Q
0c
#935000
1!
1=
1b
1Q
1c
1h
0j
1r
0s
0u
0p
1q
0g
1e
1n
0T
0`
1a
0R
0B
0M
1L
1V
0U
0X
0D
0/
0#
1"
1@
0A
0>
01
0.
1-
0+
#940000
0!
0=
0b
0Q
0c
#945000
1!
1=
1b
1Q
1c
1f
0h
1s
0q
0e
0n
0k
0m
1T
1`
1B
1M
0V
1/
1#
0@
0-
#950000
0!
0=
0b
0Q
0c
#955000
1!
1=
1b
1Q
1c
0f
0l
0r
0s
1u
0o
1i
1n
1k
0T
0`
0a
1R
0B
0M
0L
0S
1D
0/
0#
0"
0C
11
00
#960000
0!
0=
0b
0Q
0c
#965000
1!
1=
1b
1Q
1c
1j
1l
1s
1o
1p
0i
1m
0n
1g
1T
1`
1B
1M
1U
1X
1S
1/
1#
1A
1>
1C
10
1.
1+
#970000
0!
0=
0b
0Q
0c
#975000
1!
1=
1b
1Q
1c
1h
0j
1r
0s
0u
0p
1q
0g
1e
1n
0T
0`
1a
0R
0B
0M
1L
1V
0U
0X
0D
0/
0#
1"
1@
0A
0>
01
0.
1-
0+
#980000
0!
0=
0b
0Q
0c
#985000
1!
1=
1b
1Q
1c
1f
0h
1s
0q
0e
0n
0k
0m
1T
1`
1B
1M
0V
1/
1#
0@
0-
#990000
0!
0=
0b
0Q
0c
#995000
1!
1=
1b
1Q
1c
0f
0l
0r
0s
1u
0o
1i
1n
1k
0T
0`
0a
1R
0B
0M
0L
0S
1D
0/
0#
0"
0C
11
00
